RforDataScienceCh1
…
(mpg_numeric <- dplyr::select_if(mpg, is.numeric))

## # A tibble: 234 x 5
##    displ  year   cyl   cty   hwy
##    <dbl> <int> <int> <int> <int>
##  1   1.8  1999     4    18    29
##  2   1.8  1999     4    21    29
##  3   2    2008     4    20    31
##  4   2    2008     4    21    30
##  5   2.8  1999     6    16    26
##  6   2.8  1999     6    18    26
##  7   3.1  2008     6    18    27
##  8   1.8  1999     4    18    26
##  9   1.8  1999     4    16    25
## 10   2    2008     4    20    28
## # ... with 224 more rows

(mpg_character <- dplyr::select_if(mpg, is.character))

## # A tibble: 234 x 6
##    manufacturer model      trans      drv   fl    class  
##    <chr>        <chr>      <chr>      <chr> <chr> <chr>  
##  1 audi         a4         auto(l5)   f     p     compact
##  2 audi         a4         manual(m5) f     p     compact
##  3 audi         a4         manual(m6) f     p     compact
##  4 audi         a4         auto(av)   f     p     compact
##  5 audi         a4         auto(l5)   f     p     compact
##  6 audi         a4         manual(m5) f     p     compact
##  7 audi         a4         auto(av)   f     p     compact
##  8 audi         a4 quattro manual(m5) 4     p     compact
##  9 audi         a4 quattro auto(l5)   4     p     compact
## 10 audi         a4 quattro manual(m6) 4     p     compact
## # ... with 224 more rows
…
